{
  "configVersion": 1,
  "timestamp": 1581336009423,
  "index": "/space-signage/index.html",
  "assetGroups": [
    {
      "name": "app",
      "installMode": "prefetch",
      "updateMode": "prefetch",
      "urls": [
        "/space-signage/favicon.ico",
        "/space-signage/index.html",
        "/space-signage/main-es2015.a43604c2cd9e94101379.js",
        "/space-signage/main-es5.e7b9febb36f850e27bb0.js",
        "/space-signage/polyfills-es2015.5728f680576ca47e99fe.js",
        "/space-signage/polyfills-es5.4e06eb653a3c8a2d581f.js",
        "/space-signage/runtime-es2015.858f8dd898b75fe86926.js",
        "/space-signage/runtime-es5.741402d1d47331ce975c.js",
        "/space-signage/styles.6ad361447e29a6489ed0.css"
      ],
      "patterns": []
    },
    {
      "name": "assets",
      "installMode": "lazy",
      "updateMode": "prefetch",
      "urls": [
        "/space-signage/MaterialIcons-Regular.012cf6a10129e2275d79.woff",
        "/space-signage/MaterialIcons-Regular.570eb83859dc23dd0eec.woff2",
        "/space-signage/MaterialIcons-Regular.a37b0c01c0baf1888ca8.ttf",
        "/space-signage/MaterialIcons-Regular.e79bfd88537def476913.eot",
        "/space-signage/assets/icons/apple-touch-icon-114x114.png",
        "/space-signage/assets/icons/apple-touch-icon-120x120.png",
        "/space-signage/assets/icons/apple-touch-icon-144x144.png",
        "/space-signage/assets/icons/apple-touch-icon-152x152.png",
        "/space-signage/assets/icons/apple-touch-icon-57x57.png",
        "/space-signage/assets/icons/apple-touch-icon-60x60.png",
        "/space-signage/assets/icons/apple-touch-icon-72x72.png",
        "/space-signage/assets/icons/apple-touch-icon-76x76.png",
        "/space-signage/assets/icons/code.txt",
        "/space-signage/assets/icons/favicon-128.png",
        "/space-signage/assets/icons/favicon-16x16.png",
        "/space-signage/assets/icons/favicon-196x196.png",
        "/space-signage/assets/icons/favicon-32x32.png",
        "/space-signage/assets/icons/favicon-96x96.png",
        "/space-signage/assets/icons/favicon.ico",
        "/space-signage/assets/icons/icon-128x128.png",
        "/space-signage/assets/icons/icon-144x144.png",
        "/space-signage/assets/icons/icon-152x152.png",
        "/space-signage/assets/icons/icon-192x192.png",
        "/space-signage/assets/icons/icon-384x384.png",
        "/space-signage/assets/icons/icon-512x512.png",
        "/space-signage/assets/icons/icon-72x72.png",
        "/space-signage/assets/icons/icon-96x96.png",
        "/space-signage/assets/icons/mstile-144x144.png",
        "/space-signage/assets/icons/mstile-150x150.png",
        "/space-signage/assets/icons/mstile-310x150.png",
        "/space-signage/assets/icons/mstile-310x310.png",
        "/space-signage/assets/icons/mstile-70x70.png",
        "/space-signage/assets/img/book_desk.svg",
        "/space-signage/assets/img/book_room.svg",
        "/space-signage/assets/img/it-banner.jpg",
        "/space-signage/assets/img/location.svg",
        "/space-signage/assets/img/logo-inverse.svg",
        "/space-signage/assets/img/logo.svg",
        "/space-signage/assets/img/skyline.jpg",
        "/space-signage/assets/img/support/chrome-logo.svg",
        "/space-signage/assets/img/support/edge-logo.svg",
        "/space-signage/assets/img/support/firefox-logo.svg",
        "/space-signage/assets/img/support/opera-logo.svg",
        "/space-signage/assets/img/support/safari-logo.svg",
        "/space-signage/assets/maps/level_01.svg",
        "/space-signage/assets/maps/level_02.svg",
        "/space-signage/assets/maps/level_03.svg",
        "/space-signage/assets/not-supported.html",
        "/space-signage/assets/settings.js"
      ],
      "patterns": []
    },
    {
      "name": "fonts",
      "installMode": "prefetch",
      "updateMode": "prefetch",
      "urls": [],
      "patterns": [
        "https:\\/\\/fonts\\.googleapis\\.com\\/.*",
        "https:\\/\\/fonts\\.gstatic\\.com\\/.*"
      ]
    }
  ],
  "dataGroups": [
    {
      "name": "settings",
      "patterns": [
        "\\/assets\\/settings\\.js"
      ],
      "strategy": "freshness",
      "maxSize": 10,
      "maxAge": 10800000,
      "timeoutMs": 10000,
      "version": 1
    },
    {
      "name": "engine-api",
      "patterns": [
        "\\/control",
        "\\/api"
      ],
      "strategy": "freshness",
      "maxSize": 100,
      "maxAge": 259200000,
      "timeoutMs": 10000,
      "version": 1
    }
  ],
  "hashTable": {
    "/space-signage/MaterialIcons-Regular.012cf6a10129e2275d79.woff": "c6c953c2ccb2ca9abb21db8dbf473b5a435f0082",
    "/space-signage/MaterialIcons-Regular.570eb83859dc23dd0eec.woff2": "09963592e8c953cc7e14e3fb0a5b05d5042e8435",
    "/space-signage/MaterialIcons-Regular.a37b0c01c0baf1888ca8.ttf": "fc05de31234e0090f7ddc28ce1b23af4026cb1da",
    "/space-signage/MaterialIcons-Regular.e79bfd88537def476913.eot": "26fb8cecb5512223277b4d290a24492a0f09ede1",
    "/space-signage/assets/icons/apple-touch-icon-114x114.png": "7083fc40eacfa044d2fef3b7a0a9e12d893e423c",
    "/space-signage/assets/icons/apple-touch-icon-120x120.png": "5ead1ed47f963d87e96a9784e18eef824246ea41",
    "/space-signage/assets/icons/apple-touch-icon-144x144.png": "8ffe5820dc4de762d4452bd6cea3b88663fd8049",
    "/space-signage/assets/icons/apple-touch-icon-152x152.png": "acb6ee2dad1f2f969544b5d0ab272748e7a68903",
    "/space-signage/assets/icons/apple-touch-icon-57x57.png": "f70d04ead359d0d9c00c73ea4fab91d83ba2d241",
    "/space-signage/assets/icons/apple-touch-icon-60x60.png": "1f5380cc150423c834518aa701d0f165e24f2ae7",
    "/space-signage/assets/icons/apple-touch-icon-72x72.png": "48d8af0747004487a87700ec47591fd6f6ce79ba",
    "/space-signage/assets/icons/apple-touch-icon-76x76.png": "3288fa4fa502c8acae0e10a51f6c579d6d326d23",
    "/space-signage/assets/icons/code.txt": "af070b5ca0c51ff9b7eb32e5340c3d2641aa3ad9",
    "/space-signage/assets/icons/favicon-128.png": "b224f1025eb13fb0548c9e9bdd55b15e972637f6",
    "/space-signage/assets/icons/favicon-16x16.png": "e5a77e844d4fb1a63027226174820e9e0debbd1b",
    "/space-signage/assets/icons/favicon-196x196.png": "b6b8fee1bf9caa8268dc30878dc88775004ca3f0",
    "/space-signage/assets/icons/favicon-32x32.png": "4a00edc00c4ba1ca3189e775cf012d2f979533bb",
    "/space-signage/assets/icons/favicon-96x96.png": "05ca37cc6860a4fde00493293b702c11e8def2f0",
    "/space-signage/assets/icons/favicon.ico": "8e294e719211b9dfae38aff07d8ab4ee5d3bfbd8",
    "/space-signage/assets/icons/icon-128x128.png": "73dc7de861f7724cc16ece255b5b4013ad3c94f4",
    "/space-signage/assets/icons/icon-144x144.png": "68e926df4f1a03ab874e9e4e3b500f05a4592ff2",
    "/space-signage/assets/icons/icon-152x152.png": "92e1f154d1dfe83109d7d1b4da735222bd927bdb",
    "/space-signage/assets/icons/icon-192x192.png": "d2ddce2a132d1f8d8b2801ebd75485e6a48fa49d",
    "/space-signage/assets/icons/icon-384x384.png": "01520c609db6e2ebfd7f44c6bddec184e076eaea",
    "/space-signage/assets/icons/icon-512x512.png": "487b722bb9a5e64dec78677070f96234506d991d",
    "/space-signage/assets/icons/icon-72x72.png": "a59f8228feeb13f30fb8370a2d19c80be93e5694",
    "/space-signage/assets/icons/icon-96x96.png": "096ab05e8684b53effdbfcd3fb08990d3506219c",
    "/space-signage/assets/icons/mstile-144x144.png": "8ffe5820dc4de762d4452bd6cea3b88663fd8049",
    "/space-signage/assets/icons/mstile-150x150.png": "8090347a45b256fc76fe8097f429015c672cd216",
    "/space-signage/assets/icons/mstile-310x150.png": "10e74a8596688370392a378db24f40d733b65300",
    "/space-signage/assets/icons/mstile-310x310.png": "78bb3c8313b6034cd26b8466a7f2c2f393d588f4",
    "/space-signage/assets/icons/mstile-70x70.png": "b224f1025eb13fb0548c9e9bdd55b15e972637f6",
    "/space-signage/assets/img/book_desk.svg": "7898795138dbd43202541a8569252ddb0032c14f",
    "/space-signage/assets/img/book_room.svg": "08a138b8c872230e088b1285095f53bbe4a002c8",
    "/space-signage/assets/img/it-banner.jpg": "7c336c8f5c623eef1a80a8e75adf7264654c54f7",
    "/space-signage/assets/img/location.svg": "7bf86d5c86c163af1a6f2b21a5b899fc76db9003",
    "/space-signage/assets/img/logo-inverse.svg": "5a8c2f8fbe353e75941a84c6c67a6efed57ee96d",
    "/space-signage/assets/img/logo.svg": "5aea529728290f62cd59bebe8d57b66696a47b0e",
    "/space-signage/assets/img/skyline.jpg": "0412c5e2b7443390f3b4dc1ae20783a9e4a5041f",
    "/space-signage/assets/img/support/chrome-logo.svg": "265fb92c1ab3d68ac7fc58c70c6a42e77569288f",
    "/space-signage/assets/img/support/edge-logo.svg": "28d8691fd6c19223a3d99dd8732416d32a82d496",
    "/space-signage/assets/img/support/firefox-logo.svg": "5d92cf1198425c8696bbd4c4c79f7ee029a207b9",
    "/space-signage/assets/img/support/opera-logo.svg": "23f8e25409598ac843eefe81ea3c09b4f460844d",
    "/space-signage/assets/img/support/safari-logo.svg": "1c510b0c330f84f6662351e4a0abd7fb8af2f678",
    "/space-signage/assets/maps/level_01.svg": "4c747855dcbcf147ceab798e97598ec74068b632",
    "/space-signage/assets/maps/level_02.svg": "720ea00998fcc22db8f1e32a991bdff1ab77db73",
    "/space-signage/assets/maps/level_03.svg": "12959defdf08e3c4583fba165fdbcddfd9fc0ff0",
    "/space-signage/assets/not-supported.html": "95103c6d901e99e32b94b716edc18f85004d7c87",
    "/space-signage/assets/settings.js": "f28f6e8747be63e983bb1a8612186879113af86e",
    "/space-signage/favicon.ico": "8e294e719211b9dfae38aff07d8ab4ee5d3bfbd8",
    "/space-signage/index.html": "6a05c7bd4919699cdc5851fd2ccba67ea060f47e",
    "/space-signage/main-es2015.a43604c2cd9e94101379.js": "6ab948ce352dc7687d46f8152aecb0e4fae780d9",
    "/space-signage/main-es5.e7b9febb36f850e27bb0.js": "4b739724298dfab8c5a1585903b4145436680d39",
    "/space-signage/polyfills-es2015.5728f680576ca47e99fe.js": "77f974dd2b186031cfc4f4526d96db4efcd39353",
    "/space-signage/polyfills-es5.4e06eb653a3c8a2d581f.js": "f84a71ef6c7a788b5fe701bf2405313d7766a66d",
    "/space-signage/runtime-es2015.858f8dd898b75fe86926.js": "b62956c2192bfe5516d6374e753773901ed50ec5",
    "/space-signage/runtime-es5.741402d1d47331ce975c.js": "b62956c2192bfe5516d6374e753773901ed50ec5",
    "/space-signage/styles.6ad361447e29a6489ed0.css": "8b3053dbfa48f7e80d0744280d257e64af3a1923"
  },
  "navigationUrls": [
    {
      "positive": true,
      "regex": "^\\/.*$"
    },
    {
      "positive": false,
      "regex": "^\\/(?:.+\\/)?[^/]*\\.[^/]*$"
    },
    {
      "positive": false,
      "regex": "^\\/(?:.+\\/)?[^/]*__[^/]*$"
    },
    {
      "positive": false,
      "regex": "^\\/(?:.+\\/)?[^/]*__[^/]*\\/.*$"
    }
  ]
}